{
  "development":  {
    "dialect": "sqlite",
    "storage": "data/dev-db.sqlite3",
    "migrationStorage": "json",
    "seederStorage": "json"
  },
  "production": {
    "use_env_variable": "DB_CONNECTION_STRING"
  }
}
